TrafficLightController/simulation/qsim/TrafficLightController.msim.vcd
$comment
	File created using the following command:
		vcd file TrafficLightController.msim.vcd -direction
$end
$date
	Wed Nov 25 11:08:02 2020
$end
$version
	ModelSim Version 10.1d
$end
$timescale
	1ps
$end
$scope module TrafficLightController_vlg_vec_tst $end
$var reg 6 ! LongTime_i [5:0] $end
$var reg 6 " ShortTime_i [5:0] $end
$var reg 1 # clk $end
$var wire 1 $ FG $end
$var wire 1 % FR $end
$var wire 1 & FY $end
$var wire 1 ' HG $end
$var wire 1 ( HR $end
$var wire 1 ) HY $end
$var wire 1 * sampler $end
$scope module i1 $end
$var wire 1 + gnd $end
$var wire 1 , vcc $end
$var wire 1 - unknown $end
$var tri1 1 . devclrn $end
$var tri1 1 / devpor $end
$var tri1 1 0 devoe $end
$var wire 1 1 ShortTime_Inst|register_inst0|q[0]~6_combout $end
$var wire 1 2 ShortTime_Inst|register_inst0|q[0]~7 $end
$var wire 1 3 ShortTime_Inst|register_inst0|q[1]~8_combout $end
$var wire 1 4 ShortTime_Inst|register_inst0|q[1]~9 $end
$var wire 1 5 ShortTime_Inst|register_inst0|q[2]~10_combout $end
$var wire 1 6 ShortTime_Inst|register_inst0|q[2]~11 $end
$var wire 1 7 ShortTime_Inst|register_inst0|q[3]~12_combout $end
$var wire 1 8 ShortTime_Inst|register_inst0|q[3]~13 $end
$var wire 1 9 ShortTime_Inst|register_inst0|q[4]~14_combout $end
$var wire 1 : ShortTime_Inst|register_inst0|q[4]~15 $end
$var wire 1 ; ShortTime_Inst|register_inst0|q[5]~16_combout $end
$var wire 1 < LongTime_Inst|register_inst0|q[0]~6_combout $end
$var wire 1 = LongTime_Inst|register_inst0|q[0]~7 $end
$var wire 1 > LongTime_Inst|register_inst0|q[1]~8_combout $end
$var wire 1 ? LongTime_Inst|register_inst0|q[1]~9 $end
$var wire 1 @ LongTime_Inst|register_inst0|q[2]~10_combout $end
$var wire 1 A LongTime_Inst|register_inst0|q[2]~11 $end
$var wire 1 B LongTime_Inst|register_inst0|q[3]~12_combout $end
$var wire 1 C LongTime_Inst|register_inst0|q[3]~13 $end
$var wire 1 D LongTime_Inst|register_inst0|q[4]~14_combout $end
$var wire 1 E LongTime_Inst|register_inst0|q[4]~15 $end
$var wire 1 F LongTime_Inst|register_inst0|q[5]~16_combout $end
$var wire 1 G clk~combout $end
$var wire 1 H ST_Comp_Inst|LessThan0~1_cout $end
$var wire 1 I ST_Comp_Inst|LessThan0~3_cout $end
$var wire 1 J ST_Comp_Inst|LessThan0~5_cout $end
$var wire 1 K ST_Comp_Inst|LessThan0~7_cout $end
$var wire 1 L ST_Comp_Inst|LessThan0~9_cout $end
$var wire 1 M ST_Comp_Inst|LessThan0~10_combout $end
$var wire 1 N LT_Comp_Inst|LessThan0~1_cout $end
$var wire 1 O LT_Comp_Inst|LessThan0~3_cout $end
$var wire 1 P LT_Comp_Inst|LessThan0~5_cout $end
$var wire 1 Q LT_Comp_Inst|LessThan0~7_cout $end
$var wire 1 R LT_Comp_Inst|LessThan0~9_cout $end
$var wire 1 S LT_Comp_Inst|LessThan0~10_combout $end
$var wire 1 T FSM_Inst|NextState_Inst|Mux1~0_combout $end
$var wire 1 U FSM_Inst|NextState_Inst|Mux0~0_combout $end
$var wire 1 V FSM_Inst|Output_Inst|Decoder0~0_combout $end
$var wire 1 W FSM_Inst|Output_Inst|Decoder0~1_combout $end
$var wire 1 X FSM_Inst|Output_Inst|Decoder0~2_combout $end
$var wire 1 Y FSM_Inst|Output_Inst|Decoder0~3_combout $end
$var wire 1 Z LongTime_Inst|register_inst0|q [5] $end
$var wire 1 [ LongTime_Inst|register_inst0|q [4] $end
$var wire 1 \ LongTime_Inst|register_inst0|q [3] $end
$var wire 1 ] LongTime_Inst|register_inst0|q [2] $end
$var wire 1 ^ LongTime_Inst|register_inst0|q [1] $end
$var wire 1 _ LongTime_Inst|register_inst0|q [0] $end
$var wire 1 ` ShortTime_Inst|register_inst0|q [5] $end
$var wire 1 a ShortTime_Inst|register_inst0|q [4] $end
$var wire 1 b ShortTime_Inst|register_inst0|q [3] $end
$var wire 1 c ShortTime_Inst|register_inst0|q [2] $end
$var wire 1 d ShortTime_Inst|register_inst0|q [1] $end
$var wire 1 e ShortTime_Inst|register_inst0|q [0] $end
$var wire 1 f FSM_Inst|REG_Inst|q [1] $end
$var wire 1 g FSM_Inst|REG_Inst|q [0] $end
$var wire 1 h ShortTime_i~combout [5] $end
$var wire 1 i ShortTime_i~combout [4] $end
$var wire 1 j ShortTime_i~combout [3] $end
$var wire 1 k ShortTime_i~combout [2] $end
$var wire 1 l ShortTime_i~combout [1] $end
$var wire 1 m ShortTime_i~combout [0] $end
$var wire 1 n LongTime_i~combout [5] $end
$var wire 1 o LongTime_i~combout [4] $end
$var wire 1 p LongTime_i~combout [3] $end
$var wire 1 q LongTime_i~combout [2] $end
$var wire 1 r LongTime_i~combout [1] $end
$var wire 1 s LongTime_i~combout [0] $end
$upscope $end
$upscope $end
$enddefinitions $end
#0
$dumpvars
b101 !
b11 "
0#
0$
1%
0&
1'
0(
0)
x*
0+
1,
x-
1.
1/
10
11
02
03
14
05
06
07
18
09
0:
0;
1<
0=
0>
1?
0@
0A
0B
1C
0D
0E
0F
0G
1H
0I
1J
0K
1L
1M
1N
0O
1P
0Q
1R
1S
0T
0U
0V
0W
0X
0Y
0_
0^
0]
0\
0[
0Z
0e
0d
0c
0b
0a
0`
0g
0f
1m
1l
0k
0j
0i
0h
1s
0r
1q
0p
0o
0n
$end
#10000
1#
1G
0*
1_
1e
0N
1=
0<
0H
12
01
1O
1>
13
#20000
0#
0G
1*
#30000
1#
1G
0*
0_
1^
0e
1d
1N
0=
1<
0?
0>
1H
02
11
1I
04
03
1?
1>
1@
0I
14
13
0J
15
0@
1J
05
1K
0K
0L
1L
0M
1M
#40000
0#
0G
1*
#50000
1#
1G
0*
1_
1e
0N
1=
0<
0H
12
01
0?
0>
1I
04
03
1@
0J
15
1K
0L
0M
#60000
0#
0G
1*
#70000
1#
1G
0*
0_
0^
1]
0e
0d
1N
0=
1<
1?
1>
0P
1A
0@
1H
02
11
0I
14
13
0O
0>
0A
1@
1Q
1B
03
1J
05
1P
0B
0R
0K
0Q
0S
1L
1R
1T
1M
1S
0T
#80000
0#
0G
1*
#90000
1#
1G
0*
1_
1e
0N
1=
0<
0H
12
01
1O
1>
13
0P
1Q
0R
0S
1T
#100000
0#
0G
1*
#110000
1#
1G
0*
1g
0_
0]
0e
1d
1W
1V
1N
0=
1<
1P
0@
1H
02
11
1I
04
03
0O
0>
0Q
0I
14
13
0J
15
1)
0'
1R
1J
05
1K
1S
0K
0L
1L
0M
1M
1U
0T
0U
1T
#120000
0#
0G
1*
#130000
1#
1G
0*
1_
1e
0N
1=
0<
0H
12
01
1O
1>
1I
04
03
0J
15
1K
0L
0M
1U
0T
#140000
0#
0G
1*
#150000
1#
1G
0*
1f
0g
0_
1^
0e
0d
1Y
0V
1N
0=
1<
0?
0>
1H
02
11
0I
14
13
1(
0%
1?
1>
1@
03
1J
05
1$
0)
0@
0K
1L
1M
#160000
0#
0G
1*
#170000
1#
1G
0*
1_
1e
0N
1=
0<
0H
12
01
0?
0>
13
1@
#180000
0#
0G
1*
#190000
1#
1G
0*
0_
0^
1]
0e
1d
1N
0=
1<
1?
1>
0P
1A
0@
1H
02
11
1I
04
03
0O
0>
0A
1@
1Q
1B
0I
14
13
0J
15
1P
0B
0R
1J
05
1K
0Q
0S
0K
0L
1R
1T
1L
0M
1S
1M
0T
#200000
0#
0G
1*
#210000
1#
1G
0*
1_
1e
0N
1=
0<
0H
12
01
1O
1>
1I
04
03
0P
0J
15
1Q
1K
0R
0L
0S
0M
1T
#220000
0#
0G
1*
#230000
1#
1G
0*
1g
0_
0]
0e
0d
0Y
1X
0U
0T
1N
0=
1<
1P
0@
1H
02
11
0I
14
13
0O
0>
0Q
03
1J
05
0$
1&
1R
0K
1S
1L
1M
1U
1T
#240000
0#
0G
1*
#250000
1#
1G
0*
1_
1e
0N
1=
0<
0H
12
01
1O
1>
13
#260000
0#
0G
1*
#270000
1#
1G
0*
0_
1^
0e
1d
1N
0=
1<
0?
0>
1H
02
11
1I
04
03
1?
1>
1@
0I
14
13
0J
15
0@
1J
05
1K
0K
0L
1L
0M
1M
0U
0T
1U
1T
#280000
0#
0G
1*
#290000
1#
1G
0*
1_
1e
0N
1=
0<
0H
12
01
0?
0>
1I
04
03
1@
0J
15
1K
0L
0M
0U
0T
#300000
0#
0G
1*
#310000
1#
1G
0*
0f
0g
0_
0^
1]
0e
0d
0X
0W
1N
0=
1<
1?
1>
0P
1A
0@
1H
02
11
0I
14
13
0(
1%
0O
0>
0A
1@
1Q
1B
03
1J
05
0&
1'
1P
0B
0R
0K
0Q
0S
1L
1R
1T
1M
1S
0T
#320000
0#
0G
1*
#330000
1#
1G
0*
1_
1e
0N
1=
0<
0H
12
01
1O
1>
13
0P
1Q
0R
0S
1T
#340000
0#
0G
1*
#350000
1#
1G
0*
1g
0_
0]
0e
1d
1W
1V
1N
0=
1<
1P
0@
1H
02
11
1I
04
03
0O
0>
0Q
0I
14
13
0J
15
1)
0'
1R
1J
05
1K
1S
0K
0L
1L
0M
1M
1U
0T
0U
1T
#360000
0#
0G
1*
#370000
1#
1G
0*
1_
1e
0N
1=
0<
0H
12
01
1O
1>
1I
04
03
0J
15
1K
0L
0M
1U
0T
#380000
0#
0G
1*
#390000
1#
1G
0*
1f
0g
0_
1^
0e
0d
1Y
0V
1N
0=
1<
0?
0>
1H
02
11
0I
14
13
1(
0%
1?
1>
1@
03
1J
05
1$
0)
0@
0K
1L
1M
#400000
0#
0G
1*
#410000
1#
1G
0*
1_
1e
0N
1=
0<
0H
12
01
0?
0>
13
1@
#420000
0#
0G
1*
#430000
1#
1G
0*
0_
0^
1]
0e
1d
1N
0=
1<
1?
1>
0P
1A
0@
1H
02
11
1I
04
03
0O
0>
0A
1@
1Q
1B
0I
14
13
0J
15
1P
0B
0R
1J
05
1K
0Q
0S
0K
0L
1R
1T
1L
0M
1S
1M
0T
#440000
0#
0G
1*
#450000
1#
1G
0*
1_
1e
0N
1=
0<
0H
12
01
1O
1>
1I
04
03
0P
0J
15
1Q
1K
0R
0L
0S
0M
1T
#460000
0#
0G
1*
#470000
1#
1G
0*
1g
0_
0]
0e
0d
0Y
1X
0U
0T
1N
0=
1<
1P
0@
1H
02
11
0I
14
13
0O
0>
0Q
03
1J
05
0$
1&
1R
0K
1S
1L
1M
1U
1T
#480000
0#
0G
1*
#490000
1#
1G
0*
1_
1e
0N
1=
0<
0H
12
01
1O
1>
13
#500000
0#
0G
1*
#510000
1#
1G
0*
0_
1^
0e
1d
1N
0=
1<
0?
0>
1H
02
11
1I
04
03
1?
1>
1@
0I
14
13
0J
15
0@
1J
05
1K
0K
0L
1L
0M
1M
0U
0T
1U
1T
#520000
0#
0G
1*
#530000
1#
1G
0*
1_
1e
0N
1=
0<
0H
12
01
0?
0>
1I
04
03
1@
0J
15
1K
0L
0M
0U
0T
#540000
0#
0G
1*
#550000
1#
1G
0*
0f
0g
0_
0^
1]
0e
0d
0X
0W
1N
0=
1<
1?
1>
0P
1A
0@
1H
02
11
0I
14
13
0(
1%
0O
0>
0A
1@
1Q
1B
03
1J
05
0&
1'
1P
0B
0R
0K
0Q
0S
1L
1R
1T
1M
1S
0T
#560000
0#
0G
1*
#570000
1#
1G
0*
1_
1e
0N
1=
0<
0H
12
01
1O
1>
13
0P
1Q
0R
0S
1T
#580000
0#
0G
1*
#590000
1#
1G
0*
1g
0_
0]
0e
1d
1W
1V
1N
0=
1<
1P
0@
1H
02
11
1I
04
03
0O
0>
0Q
0I
14
13
0J
15
1)
0'
1R
1J
05
1K
1S
0K
0L
1L
0M
1M
1U
0T
0U
1T
#600000
0#
0G
1*
#610000
1#
1G
0*
1_
1e
0N
1=
0<
0H
12
01
1O
1>
1I
04
03
0J
15
1K
0L
0M
1U
0T
#620000
0#
0G
1*
#630000
1#
1G
0*
1f
0g
0_
1^
0e
0d
1Y
0V
1N
0=
1<
0?
0>
1H
02
11
0I
14
13
1(
0%
1?
1>
1@
03
1J
05
1$
0)
0@
0K
1L
1M
#640000
0#
0G
1*
#650000
1#
1G
0*
1_
1e
0N
1=
0<
0H
12
01
0?
0>
13
1@
#660000
0#
0G
1*
#670000
1#
1G
0*
0_
0^
1]
0e
1d
1N
0=
1<
1?
1>
0P
1A
0@
1H
02
11
1I
04
03
0O
0>
0A
1@
1Q
1B
0I
14
13
0J
15
1P
0B
0R
1J
05
1K
0Q
0S
0K
0L
1R
1T
1L
0M
1S
1M
0T
#680000
0#
0G
1*
#690000
1#
1G
0*
1_
1e
0N
1=
0<
0H
12
01
1O
1>
1I
04
03
0P
0J
15
1Q
1K
0R
0L
0S
0M
1T
#700000
0#
0G
1*
#710000
1#
1G
0*
1g
0_
0]
0e
0d
0Y
1X
0U
0T
1N
0=
1<
1P
0@
1H
02
11
0I
14
13
0O
0>
0Q
03
1J
05
0$
1&
1R
0K
1S
1L
1M
1U
1T
#720000
0#
0G
1*
#730000
1#
1G
0*
1_
1e
0N
1=
0<
0H
12
01
1O
1>
13
#740000
0#
0G
1*
#750000
1#
1G
0*
0_
1^
0e
1d
1N
0=
1<
0?
0>
1H
02
11
1I
04
03
1?
1>
1@
0I
14
13
0J
15
0@
1J
05
1K
0K
0L
1L
0M
1M
0U
0T
1U
1T
#760000
0#
0G
1*
#770000
1#
1G
0*
1_
1e
0N
1=
0<
0H
12
01
0?
0>
1I
04
03
1@
0J
15
1K
0L
0M
0U
0T
#780000
0#
0G
1*
#790000
1#
1G
0*
0f
0g
0_
0^
1]
0e
0d
0X
0W
1N
0=
1<
1?
1>
0P
1A
0@
1H
02
11
0I
14
13
0(
1%
0O
0>
0A
1@
1Q
1B
03
1J
05
0&
1'
1P
0B
0R
0K
0Q
0S
1L
1R
1T
1M
1S
0T
#800000
0#
0G
1*
#810000
1#
1G
0*
1_
1e
0N
1=
0<
0H
12
01
1O
1>
13
0P
1Q
0R
0S
1T
#820000
0#
0G
1*
#830000
1#
1G
0*
1g
0_
0]
0e
1d
1W
1V
1N
0=
1<
1P
0@
1H
02
11
1I
04
03
0O
0>
0Q
0I
14
13
0J
15
1)
0'
1R
1J
05
1K
1S
0K
0L
1L
0M
1M
1U
0T
0U
1T
#840000
0#
0G
1*
#850000
1#
1G
0*
1_
1e
0N
1=
0<
0H
12
01
1O
1>
1I
04
03
0J
15
1K
0L
0M
1U
0T
#860000
0#
0G
1*
#870000
1#
1G
0*
1f
0g
0_
1^
0e
0d
1Y
0V
1N
0=
1<
0?
0>
1H
02
11
0I
14
13
1(
0%
1?
1>
1@
03
1J
05
1$
0)
0@
0K
1L
1M
#880000
0#
0G
1*
#890000
1#
1G
0*
1_
1e
0N
1=
0<
0H
12
01
0?
0>
13
1@
#900000
0#
0G
1*
#910000
1#
1G
0*
0_
0^
1]
0e
1d
1N
0=
1<
1?
1>
0P
1A
0@
1H
02
11
1I
04
03
0O
0>
0A
1@
1Q
1B
0I
14
13
0J
15
1P
0B
0R
1J
05
1K
0Q
0S
0K
0L
1R
1T
1L
0M
1S
1M
0T
#920000
0#
0G
1*
#930000
1#
1G
0*
1_
1e
0N
1=
0<
0H
12
01
1O
1>
1I
04
03
0P
0J
15
1Q
1K
0R
0L
0S
0M
1T
#940000
0#
0G
1*
#950000
1#
1G
0*
1g
0_
0]
0e
0d
0Y
1X
0U
0T
1N
0=
1<
1P
0@
1H
02
11
0I
14
13
0O
0>
0Q
03
1J
05
0$
1&
1R
0K
1S
1L
1M
1U
1T
#960000
0#
0G
1*
#970000
1#
1G
0*
1_
1e
0N
1=
0<
0H
12
01
1O
1>
13
#980000
0#
0G
1*
#990000
1#
1G
0*
0_
1^
0e
1d
1N
0=
1<
0?
0>
1H
02
11
1I
04
03
1?
1>
1@
0I
14
13
0J
15
0@
1J
05
1K
0K
0L
1L
0M
1M
0U
0T
1U
1T
